…
```r
#regular linear model
lm_model <- 
  linear_reg() %>% 
  set_engine("lm")

chicks_train_chick_ungrouped <- chicks_train_chick %>% unnest(data)
chicks_train_chick_ungrouped
```

```
## # A tibble: 459 × 4
##    Chick weight  Time Diet 
##    <ord>  <dbl> <dbl> <fct>
##  1 40        41     0 3    
##  2 40        55     2 3    
##  3 40        66     4 3    
##  4 40        79     6 3    
##  5 40       101     8 3    
##  6 40       120    10 3    
##  7 40       154    12 3    
##  8 40       182    14 3    
##  9 40       215    16 3    
## 10 40       262    18 3    
## # ℹ 449 more rows
```
…
```r
#tidy(lm_mixed_fit) #Error: No tidy method for objects of class lmerMod
```


3.  Use your model to predict weight in your test set chicks. (using
    parsnip tools)

```r
chicks_test_chick_ungrouped <- chicks_test_chick %>% unnest(data)
chicks_test_chick_ungrouped
```

```
## # A tibble: 119 × 4
##    Chick weight  Time Diet 
##    <ord>  <dbl> <dbl> <fct>
##  1 8         42     0 1    
##  2 8         50     2 1    
##  3 8         61     4 1    
##  4 8         71     6 1    
##  5 8         84     8 1    
##  6 8         93    10 1    
##  7 8        110    12 1    
##  8 8        116    14 1    
##  9 8        126    16 1    
## 10 8        134    18 1    
## # ℹ 109 more rows
```

```r
predict(lm_fit, new_data = chicks_test_chick_ungrouped)
```

```
## # A tibble: 119 × 1
##     .pred
##     <dbl>
##  1   8.67
##  2  26.5 
##  3  44.3 
##  4  62.1 
##  5  79.9 
##  6  97.7 
##  7 115.  
##  8 133.  
##  9 151.  
## 10 169.  
## # ℹ 109 more rows
```

```r
pred_obs_data <- chicks_test_chick_ungrouped %>% 
  select(weight) %>% 
  bind_cols(predict(lm_fit, chicks_test_chick_ungrouped)) %>% 
  # Add 95% prediction intervals to the results:
  bind_cols(predict(lm_fit, chicks_test_chick_ungrouped, type = "pred_int")) 
pred_obs_data
```

```
## # A tibble: 119 × 4
##    weight  .pred .pred_lower .pred_upper
##     <dbl>  <dbl>       <dbl>       <dbl>
##  1     42   8.67      -66.2         83.6
##  2     50  26.5       -48.4        101. 
##  3     61  44.3       -30.5        119. 
##  4     71  62.1       -12.7        137. 
##  5     84  79.9         5.16       155. 
##  6     93  97.7        23.0        172. 
##  7    110 115.         40.8        190. 
##  8    116 133.         58.5        208. 
##  9    126 151.         76.3        226. 
## 10    134 169.         94.1        244. 
## # ℹ 109 more rows
```
…
