…
```
## Warning in predict.lm(object = object$fit, newdata = new_data, type =
## "response", : prediction from rank-deficient fit; consider predict(.,
## rankdeficient="NA")
```

```r
predicted
```

```
## # A tibble: 1,141 × 1
##     .pred
##     <dbl>
##  1  0.425
##  2  0.795
##  3 14.0  
##  4 13.7  
##  5 13.8  
##  6  1.64 
##  7 13.9  
##  8  1.18 
##  9  0.891
## 10  0.211
## # ℹ 1,131 more rows
```
…
